[inputs]

DSIDs: 364677 364678 364679 364680 364681 364682 364683 364684 364685

364677.File: mc16_13TeV:mc16_13TeV.364677.Sherpa_CT10_CT14nnlo_CSShower_2to2jets_JZ1W.deriv.DAOD_JETM1.e6997_s3126_r10201_p4870
364678.File: mc16_13TeV:mc16_13TeV.364678.Sherpa_CT10_CT14nnlo_CSShower_2to2jets_JZ2W.deriv.DAOD_JETM1.e6929_s3126_r10201_p4870
364679.File: mc16_13TeV:mc16_13TeV.364679.Sherpa_CT10_CT14nnlo_CSShower_2to2jets_JZ3W.deriv.DAOD_JETM1.e6929_s3126_r10201_p4870
364680.File: mc16_13TeV:mc16_13TeV.364680.Sherpa_CT10_CT14nnlo_CSShower_2to2jets_JZ4W.deriv.DAOD_JETM1.e6929_s3126_r10201_p4870
364681.File: mc16_13TeV:mc16_13TeV.364681.Sherpa_CT10_CT14nnlo_CSShower_2to2jets_JZ5.deriv.DAOD_JETM1.e6929_s3126_r10201_p4870
364682.File: mc16_13TeV:mc16_13TeV.364682.Sherpa_CT10_CT14nnlo_CSShower_2to2jets_JZ6.deriv.DAOD_JETM1.e6929_s3126_r10201_p4870
364683.File: mc16_13TeV:mc16_13TeV.364683.Sherpa_CT10_CT14nnlo_CSShower_2to2jets_JZ7.deriv.DAOD_JETM1.e6929_s3126_r10201_p4870
364684.File: mc16_13TeV:mc16_13TeV.364684.Sherpa_CT10_CT14nnlo_CSShower_2to2jets_JZ8.deriv.DAOD_JETM1.e6929_s3126_r10201_p4870
364685.File: mc16_13TeV:mc16_13TeV.364685.Sherpa_CT10_CT14nnlo_CSShower_2to2jets_JZ9plus.deriv.DAOD_JETM1.e6929_s3126_r10201_p4870

364677.Name: mc16d_Sherpa_cluster_JZ1W
364678.Name: mc16d_Sherpa_cluster_JZ2W
364679.Name: mc16d_Sherpa_cluster_JZ3W
364680.Name: mc16d_Sherpa_cluster_JZ4W
364681.Name: mc16d_Sherpa_cluster_JZ5
364682.Name: mc16d_Sherpa_cluster_JZ6
364683.Name: mc16d_Sherpa_cluster_JZ7
364684.Name: mc16d_Sherpa_cluster_JZ8
364685.Name: mc16d_Sherpa_cluster_JZ9plus
