[inputs]

DSIDs: 364922 364923 364924 364925 364926 364927 364928 364929

364922.File: mc16_13TeV:mc16_13TeV.364922.H7EG_Matchbox_angular_jetjetNLO_JZ2WithSW.deriv.DAOD_JETM1.e7482_s3126_r9364_p4870
364923.File: mc16_13TeV:mc16_13TeV.364923.H7EG_Matchbox_angular_jetjetNLO_JZ3WithSW.deriv.DAOD_JETM1.e7482_s3126_r9364_p4870
364924.File: mc16_13TeV:mc16_13TeV.364924.H7EG_Matchbox_angular_jetjetNLO_JZ4WithSW.deriv.DAOD_JETM1.e7482_s3126_r9364_p4870
364925.File: mc16_13TeV:mc16_13TeV.364925.H7EG_Matchbox_angular_jetjetNLO_JZ5WithSW.deriv.DAOD_JETM1.e7482_s3126_r9364_p4870
364926.File: mc16_13TeV:mc16_13TeV.364926.H7EG_Matchbox_angular_jetjetNLO_JZ6WithSW.deriv.DAOD_JETM1.e7482_s3126_r9364_p4870
364927.File: mc16_13TeV:mc16_13TeV.364927.H7EG_Matchbox_angular_jetjetNLO_JZ7WithSW.deriv.DAOD_JETM1.e7482_s3126_r9364_p4870
364928.File: mc16_13TeV:mc16_13TeV.364928.H7EG_Matchbox_angular_jetjetNLO_JZ8WithSW.deriv.DAOD_JETM1.e7482_s3126_r9364_p4870
364929.File: mc16_13TeV:mc16_13TeV.364929.H7EG_Matchbox_angular_jetjetNLO_JZ9plusWithSW.deriv.DAOD_JETM1.e7482_s3126_r9364_p4870

364922.Name: mc16a_Herwig7_angular_JZ2WithSW
364923.Name: mc16a_Herwig7_angular_JZ3WithSW
364924.Name: mc16a_Herwig7_angular_JZ4WithSW
364925.Name: mc16a_Herwig7_angular_JZ5WithSW
364926.Name: mc16a_Herwig7_angular_JZ6WithSW
364927.Name: mc16a_Herwig7_angular_JZ7WithSW
364928.Name: mc16a_Herwig7_angular_JZ8WithSW
364929.Name: mc16a_Herwig7_angular_JZ9WithSW