[inputs]

DSIDs: 364902 364903 364904 364905 364906 364907 364908 364909

364902.File: mc16_13TeV:mc16_13TeV.364902.H7EG_Matchbox_dipole_jetjetNLO_JZ2WithSW.deriv.DAOD_JETM1.e7482_s3126_r10724_p4870
364903.File: mc16_13TeV:mc16_13TeV.364903.H7EG_Matchbox_dipole_jetjetNLO_JZ3WithSW.deriv.DAOD_JETM1.e7482_s3126_r10724_p4870
364904.File: mc16_13TeV:mc16_13TeV.364904.H7EG_Matchbox_dipole_jetjetNLO_JZ4WithSW.deriv.DAOD_JETM1.e7482_s3126_r10724_p4870
364905.File: mc16_13TeV:mc16_13TeV.364905.H7EG_Matchbox_dipole_jetjetNLO_JZ5WithSW.deriv.DAOD_JETM1.e7482_s3126_r10724_p4870
364906.File: mc16_13TeV:mc16_13TeV.364906.H7EG_Matchbox_dipole_jetjetNLO_JZ6WithSW.deriv.DAOD_JETM1.e7482_s3126_r10724_p4870
364907.File: mc16_13TeV:mc16_13TeV.364907.H7EG_Matchbox_dipole_jetjetNLO_JZ7WithSW.deriv.DAOD_JETM1.e7482_s3126_r10724_p4870
364908.File: mc16_13TeV:mc16_13TeV.364908.H7EG_Matchbox_dipole_jetjetNLO_JZ8WithSW.deriv.DAOD_JETM1.e7482_s3126_r10724_p4870
364909.File: mc16_13TeV:mc16_13TeV.364909.H7EG_Matchbox_dipole_jetjetNLO_JZ9WithSW.deriv.DAOD_JETM1.e7482_s3126_r10724_p4870

364902.Name: mc16e_Herwig7_dipole_JZ2WithSW
364903.Name: mc16e_Herwig7_dipole_JZ3WithSW
364904.Name: mc16e_Herwig7_dipole_JZ4WithSW
364905.Name: mc16e_Herwig7_dipole_JZ5WithSW
364906.Name: mc16e_Herwig7_dipole_JZ6WithSW
364907.Name: mc16e_Herwig7_dipole_JZ7WithSW
364908.Name: mc16e_Herwig7_dipole_JZ8WithSW
364909.Name: mc16e_Herwig7_dipole_JZ9WithSW