[inputs]

DSIDs: 364686 364687 364687 364688 364689 364690 364691 364692 364693 364694 

364686.File: mc16_13TeV:mc16_13TeV.364686.Sherpa_CT10_CT14nnlo_CSShower_Lund_2to2jets_JZ1W.deriv.DAOD_JETM9.e6929_e5984_s3126_r10201_r10210_p3875
364687.File: mc16_13TeV:mc16_13TeV.364687.Sherpa_CT10_CT14nnlo_CSShower_Lund_2to2jets_JZ2W.deriv.DAOD_JETM9.e6929_e5984_s3126_r10201_r10210_p3875
364688.File: mc16_13TeV:mc16_13TeV.364688.Sherpa_CT10_CT14nnlo_CSShower_Lund_2to2jets_JZ3W.deriv.DAOD_JETM9.e6929_e5984_s3126_r10201_r10210_p3875
364689.File: mc16_13TeV:mc16_13TeV.364689.Sherpa_CT10_CT14nnlo_CSShower_Lund_2to2jets_JZ4W.deriv.DAOD_JETM9.e6929_e5984_s3126_r10201_r10210_p3875
364690.File: mc16_13TeV:mc16_13TeV.364690.Sherpa_CT10_CT14nnlo_CSShower_Lund_2to2jets_JZ5.deriv.DAOD_JETM9.e6929_e5984_s3126_r10201_r10210_p3875
364691.File: mc16_13TeV:mc16_13TeV.364691.Sherpa_CT10_CT14nnlo_CSShower_Lund_2to2jets_JZ6.deriv.DAOD_JETM9.e6929_e5984_s3126_r10201_r10210_p3875
364692.File: mc16_13TeV:mc16_13TeV.364692.Sherpa_CT10_CT14nnlo_CSShower_Lund_2to2jets_JZ7.deriv.DAOD_JETM9.e6929_e5984_s3126_r10201_r10210_p3875
364693.File: mc16_13TeV:mc16_13TeV.364693.Sherpa_CT10_CT14nnlo_CSShower_Lund_2to2jets_JZ8.deriv.DAOD_JETM9.e6929_e5984_s3126_r10201_r10210_p3875
364694.File: mc16_13TeV:mc16_13TeV.364694.Sherpa_CT10_CT14nnlo_CSShower_Lund_2to2jets_JZ9plus.deriv.DAOD_JETM9.e6929_e5984_s3126_r10201_r10210_p3875

364686.Name: mc16d_Sherpa_string_JZ1W
364687.Name: mc16d_Sherpa_string_JZ2W
364688.Name: mc16d_Sherpa_string_JZ3W
364689.Name: mc16d_Sherpa_string_JZ4W
364690.Name: mc16d_Sherpa_string_JZ5
364691.Name: mc16d_Sherpa_string_JZ6
364692.Name: mc16d_Sherpa_string_JZ7
364693.Name: mc16d_Sherpa_string_JZ8
364694.Name: mc16d_Sherpa_string_JZ9plus
