[inputs]

DSIDs: 364701 364702 364703 364704 364705 364706 364707 364708 364709

364701.File: mc16_13TeV:mc16_13TeV.364701.Pythia8EvtGen_A14NNPDF23LO_jetjet_JZ1WithSW.deriv.DAOD_JETM6.e7142_s3126_r10724_p4870
364702.File: mc16_13TeV:mc16_13TeV.364702.Pythia8EvtGen_A14NNPDF23LO_jetjet_JZ2WithSW.deriv.DAOD_JETM6.e7142_s3126_r10724_p4870
364703.File: mc16_13TeV:mc16_13TeV.364703.Pythia8EvtGen_A14NNPDF23LO_jetjet_JZ3WithSW.deriv.DAOD_JETM6.e7142_s3126_r10724_p4870
364704.File: mc16_13TeV:mc16_13TeV.364704.Pythia8EvtGen_A14NNPDF23LO_jetjet_JZ4WithSW.deriv.DAOD_JETM6.e7142_s3126_r10724_p4870
364705.File: mc16_13TeV:mc16_13TeV.364705.Pythia8EvtGen_A14NNPDF23LO_jetjet_JZ5WithSW.deriv.DAOD_JETM6.e7142_s3126_r10724_p4870
364706.File: mc16_13TeV:mc16_13TeV.364706.Pythia8EvtGen_A14NNPDF23LO_jetjet_JZ6WithSW.deriv.DAOD_JETM6.e7142_s3126_r10724_p4870
364707.File: mc16_13TeV:mc16_13TeV.364707.Pythia8EvtGen_A14NNPDF23LO_jetjet_JZ7WithSW.deriv.DAOD_JETM6.e7142_s3126_r10724_p4870
364708.File: mc16_13TeV:mc16_13TeV.364708.Pythia8EvtGen_A14NNPDF23LO_jetjet_JZ8WithSW.deriv.DAOD_JETM6.e7142_s3126_r10724_p4870
364709.File: mc16_13TeV:mc16_13TeV.364709.Pythia8EvtGen_A14NNPDF23LO_jetjet_JZ9WithSW.deriv.DAOD_JETM6.e7142_s3126_r10724_p4870

364701.Name: mc16e_Pythia8_JZ1WithSW
364702.Name: mc16e_Pythia8_JZ2WithSW
364703.Name: mc16e_Pythia8_JZ3WithSW
364704.Name: mc16e_Pythia8_JZ4WithSW
364705.Name: mc16e_Pythia8_JZ5WithSW
364706.Name: mc16e_Pythia8_JZ6WithSW
364707.Name: mc16e_Pythia8_JZ7WithSW
364708.Name: mc16e_Pythia8_JZ8WithSW
364709.Name: mc16e_Pythia8_JZ9WithSW